module anotherdaylearn2

go 1.16

require (
	github.com/appleboy/gin-jwt/v2 v2.6.4
	github.com/dgrijalva/jwt-go v3.2.0+incompatible
	github.com/gin-gonic/gin v1.7.2
	github.com/go-redis/redis/v7 v7.4.0
	github.com/go-sql-driver/mysql v1.6.0
	github.com/google/uuid v1.2.0
	golang.org/x/crypto v0.0.0-20210616213533-5ff15b29337e
)
